2D density graphs of cell populations
…
pander("Overview of the final data files")

Overview of the final data files

dat_list <- lapply(res_list, `[[`, "data")
dat_list

## $Brach
## # A tibble: 617 × 13
##      Angle Length name   cut_num cond  Embryo position ...7.x     H ...7.y     W
##      <dbl>  <dbl> <chr>    <dbl> <fct>  <dbl> <chr>    <lgl>  <dbl> <lgl>  <dbl>
##  1 1.57     1142. ntf3_…       1 ctrl       1 Brach    NA     1142. NA      455.
##  2 0.00440   455. ntf3_…       1 ctrl       1 Brach    NA     1142. NA      455.
##  3 0.233     164. ntf3_…       1 ctrl       1 Brach    NA     1142. NA      455.
##  4 0.0485    165. ntf3_…       1 ctrl       1 Brach    NA     1142. NA      455.
##  5 0.681     264. ntf3_…       1 ctrl       1 Brach    NA     1142. NA      455.
##  6 0.573     292. ntf3_…       1 ctrl       1 Brach    NA     1142. NA      455.
##  7 0.500     259. ntf3_…       1 ctrl       1 Brach    NA     1142. NA      455.
##  8 0.628     316. ntf3_…       1 ctrl       1 Brach    NA     1142. NA      455.
##  9 0.425     405. ntf3_…       1 ctrl       1 Brach    NA     1142. NA      455.
## 10 0.499     422. ntf3_…       1 ctrl       1 Brach    NA     1142. NA      455.
## # ℹ 607 more rows
## # ℹ 2 more variables: ML <dbl>, DV <dbl>
## 
## $Lumb
## # A tibble: 836 × 13
##       Angle Length name  cut_num cond  Embryo position ...7.x     H ...7.y     W
##       <dbl>  <dbl> <chr>   <dbl> <fct>  <dbl> <chr>    <lgl>  <dbl> <lgl>  <dbl>
##  1  1.56      972. ntf3…       7 ctrl       1 Lumb     NA      972. NA      453.
##  2 -0.00442   453. ntf3…       7 ctrl       1 Lumb     NA      972. NA      453.
##  3  1.19      175. ntf3…       7 ctrl       1 Lumb     NA      972. NA      453.
##  4  0.974     196. ntf3…       7 ctrl       1 Lumb     NA      972. NA      453.
##  5  0.998     221. ntf3…       7 ctrl       1 Lumb     NA      972. NA      453.
##  6  1.12      222. ntf3…       7 ctrl       1 Lumb     NA      972. NA      453.
##  7  1.17      255. ntf3…       7 ctrl       1 Lumb     NA      972. NA      453.
##  8  1.03      255. ntf3…       7 ctrl       1 Lumb     NA      972. NA      453.
##  9  1.12      296. ntf3…       7 ctrl       1 Lumb     NA      972. NA      453.
## 10  1.11      321. ntf3…       7 ctrl       1 Lumb     NA      972. NA      453.
## # ℹ 826 more rows
## # ℹ 2 more variables: ML <dbl>, DV <dbl>
## 
## $Thor
## # A tibble: 695 × 13
##     Angle Length name    cut_num cond  Embryo position ...7.x     H ...7.y     W
##     <dbl>  <dbl> <chr>     <dbl> <fct>  <dbl> <chr>    <lgl>  <dbl> <lgl>  <dbl>
##  1 1.57    1014  ntf3_c…       4 ctrl       1 Thor     NA      1014 NA      599.
##  2 0.0117   599. ntf3_c…       4 ctrl       1 Thor     NA      1014 NA      599.
##  3 1.17     155. ntf3_c…       4 ctrl       1 Thor     NA      1014 NA      599.
##  4 1.12     160. ntf3_c…       4 ctrl       1 Thor     NA      1014 NA      599.
##  5 1.02     179. ntf3_c…       4 ctrl       1 Thor     NA      1014 NA      599.
##  6 0.960    146. ntf3_c…       4 ctrl       1 Thor     NA      1014 NA      599.
##  7 1.05     205. ntf3_c…       4 ctrl       1 Thor     NA      1014 NA      599.
##  8 0.902    189. ntf3_c…       4 ctrl       1 Thor     NA      1014 NA      599.
##  9 0.751    187. ntf3_c…       4 ctrl       1 Thor     NA      1014 NA      599.
## 10 0.871    233. ntf3_c…       4 ctrl       1 Thor     NA      1014 NA      599.
## # ℹ 685 more rows
## # ℹ 2 more variables: ML <dbl>, DV <dbl>
…
